{
  "api": {
    "services": [
      "HandlerService",
      "StatsService"
    ],
    "tag": "api"
  },
  "stats": {
  },
  "inbound": {
    "port": 36788,
    "protocol": "vmess",
    "settings": {
      "clients": []
    },
    "streamSettings": {
      "network": "ws"
    },
    "tag": "proxy"
  },
  "inboundDetour": [{
    "listen": "0.0.0.0",
    "port": 8301,
    "protocol": "dokodemo-door",
    "settings": {
      "address": "0.0.0.0"
    },
    "tag": "api"
  }],
  "log": {
    "loglevel": "debug",
    "access": "/var/log/v2ray/access.log",
    "error": "/var/log/v2ray/error.log"
  },
  "outbound": {
    "protocol": "freedom",
    "settings": {}
  },
  "routing": {
    "settings": {
      "rules": [{
        "inboundTag": [
          "api"
        ],
        "outboundTag": "api",
        "type": "field"
      }]
    },
    "strategy": "rules"
  },
  "policy": {
    "levels": {
      "1": {
        "handshake": 4,
        "connIdle": 300,
        "uplinkOnly": 5,
        "downlinkOnly": 30,
        "statsUserUplink": true,
        "statsUserDownlink": true
      }
    }
  }
}
